<?xml version="1.0" encoding="UTF-8"?>
<!DOCTYPE svg PUBLIC "-//W3C//DTD SVG 1.1//EN" "http://www.w3.org/Graphics/SVG/1.1/DTD/svg11.dtd">
<!-- Creator: CorelDRAW X7 -->
<svg xmlns="http://www.w3.org/2000/svg" xml:space="preserve" width="24px" height="24px" version="1.1" style="shape-rendering:geometricPrecision; text-rendering:geometricPrecision; image-rendering:optimizeQuality; fill-rule:evenodd; clip-rule:evenodd"
viewBox="0 0 286 292"
 xmlns:xlink="http://www.w3.org/1999/xlink">
 <defs>
  <style type="text/css">
   <![CDATA[
    .fil0 {fill:#005DA8}
    .fil1 {fill:#005DA8;fill-rule:nonzero}
   ]]>
  </style>
 </defs>
 <g id="Plan_x0020_1">
  <metadata id="CorelCorpID_0Corel-Layer"/>
  <g id="_651857736">
   <rect class="fil0" width="286.09" height="38.8354"/>
   <rect class="fil0" y="63" width="286.09" height="38.8354"/>
   <rect class="fil0" y="125" width="286.09" height="38.8354"/>
  </g>
  <path class="fil1" d="M0 290l0 -73 22 0 13 50 13 -50 23 0 0 73 -14 0 0 -57 -15 57 -14 0 -14 -57 0 57 -14 0zm86 0l0 -73 54 0 0 12 -40 0 0 17 37 0 0 12 -37 0 0 20 41 0 0 12 -55 0zm68 0l0 -73 14 0 30 49 0 -49 14 0 0 73 -15 0 -29 -48 0 48 -14 0zm74 -73l15 0 0 40c0,6 0,10 0,12 1,3 2,6 5,7 2,2 5,3 9,3 5,0 8,-1 10,-3 2,-1 3,-3 4,-6 0,-2 0,-7 0,-12l0 -41 15 0 0 39c0,8 0,15 -1,18 -1,4 -2,7 -5,10 -2,2 -5,4 -8,6 -4,1 -8,2 -14,2 -7,0 -12,-1 -16,-3 -4,-1 -7,-3 -9,-6 -2,-3 -3,-5 -4,-8 -1,-4 -1,-11 -1,-19l0 -39z"/>
 </g>
</svg>
