<svg xmlns="http://www.w3.org/2000/svg" xmlns:xlink="http://www.w3.org/1999/xlink" width="20" height="20" viewBox="0 0 20 20">
  <defs>
    <clipPath id="clip-path">
      <rect width="20" height="20" fill="none"/>
    </clipPath>
  </defs>
  <g id="picto_message_erreur" clip-path="url(#clip-path)">
    <circle id="Ellipse_15" data-name="Ellipse 15" cx="10" cy="10" r="10" fill="#dc3545"/>
    <rect id="Rectangle_15" data-name="Rectangle 15" width="7.84" height="2.5" transform="translate(6.155 8.75)" fill="#fff"/>
  </g>
</svg>
