<?xml version="1.0" encoding="utf-8"?>
<!-- Generator: Adobe Illustrator 16.0.0, SVG Export Plug-In . SVG Version: 6.00 Build 0)  -->
<!DOCTYPE svg PUBLIC "-//W3C//DTD SVG 1.1//EN" "http://www.w3.org/Graphics/SVG/1.1/DTD/svg11.dtd">
<svg version="1.1" id="Calque_1" xmlns="http://www.w3.org/2000/svg" xmlns:xlink="http://www.w3.org/1999/xlink" x="0px" y="0px"
	 width="35px" height="17.388px" viewBox="0 0 35 17.388" enable-background="new 0 0 35 17.388" xml:space="preserve">
<rect x="5.188" y="-12.414" transform="matrix(0.7071 -0.7071 0.7071 0.7071 5.1092 12.3342)" fill="#EDEDED" width="24.512" height="24.827"/>
<rect x="5.394" y="-18.952" transform="matrix(0.7071 -0.7071 0.7071 0.7071 9.9202 10.4796)" fill="#30B7EA" width="24.434" height="24.434"/>
</svg>
